[
  {
    "visit_id": "eccc0271-6dba-4c69-8ac5-e6708fbbd1b2",
    "event_type": "check_in",
    "caregiver_id": "b5583964-a87f-4f29-91eb-e1996bb54ea4"
  },
  {
    "visit_id": "8e1dd351-9178-45d1-be2d-673692c2e6ac",
    "event_type": "check_in",
    "caregiver_id": "b5583964-a87f-4f29-91eb-e1996bb54ea4"
  },
  {
    "visit_id": "787b747b-805a-4465-ba59-b0276cf0d505",
    "event_type": "check_in",
    "caregiver_id": "b5583964-a87f-4f29-91eb-e1996bb54ea4"
  },
  {
    "visit_id": "0a4e875e-a964-4a04-8a1a-5ba7893ee00c",
    "event_type": "check_in",
    "caregiver_id": "10831d42-8680-4dd7-8c4a-9a2a120630bd"
  },
  {
    "visit_id": "12fac457-7ee3-4e18-b592-b5cc5eaf1300",
    "event_type": "check_in",
    "caregiver_id": "bbb357bd-7bda-47a8-b0be-3c7f781ef3b9"
  },
  {
    "visit_id": "d63bb882-c8eb-4b19-83bc-fc7fac3ac282",
    "event_type": "check_in",
    "caregiver_id": "d127173d-beec-4303-a20f-654c7917f1b5"
  },
  {
    "visit_id": "2e7a6b1b-7c03-4f1e-92a1-5cadae2cab4d",
    "event_type": "check_in",
    "caregiver_id": "10831d42-8680-4dd7-8c4a-9a2a120630bd"
  },
  {
    "visit_id": "9a418bb7-14ef-4882-bf45-5ff8a1674f07",
    "event_type": "check_in",
    "caregiver_id": "d127173d-beec-4303-a20f-654c7917f1b5"
  },
  {
    "visit_id": "8db86d75-435b-42ee-bb2f-fb7fcff06dd4",
    "event_type": "check_in",
    "caregiver_id": "421bdf67-bca5-4450-9559-d754ef86cf95"
  },
  {
    "visit_id": "4972bfbf-b30e-41a3-a800-6ce2bb40cdb6",
    "event_type": "check_in",
    "caregiver_id": "af87311d-9589-4100-bd5d-c69cfbc3d4f4"
  },
  {
    "visit_id": "06ab2834-4011-4bd6-b3c4-7013bbc693da",
    "event_type": "check_in",
    "caregiver_id": "be278322-9dad-4f6b-8836-402e9a4dfa92"
  },
  {
    "visit_id": "81343cc8-75e0-485f-a658-656b79bcbb4e",
    "event_type": "check_in",
    "caregiver_id": "be278322-9dad-4f6b-8836-402e9a4dfa92"
  },
  {
    "visit_id": "78d8ffb5-a88b-4f45-af54-48d139a9f74f",
    "event_type": "check_in",
    "caregiver_id": "35a0ccb6-9339-4c12-a7f5-35883ec002f6"
  },
  {
    "visit_id": "cbbb1e93-b386-469f-8e19-75094b9dc4a5",
    "event_type": "check_in",
    "caregiver_id": "af87311d-9589-4100-bd5d-c69cfbc3d4f4"
  },
  {
    "visit_id": "07a140f2-7704-4fd7-b9b3-b26133458fa7",
    "event_type": "check_in",
    "caregiver_id": "b5583964-a87f-4f29-91eb-e1996bb54ea4"
  },
  {
    "visit_id": "b4c3661f-915b-4d90-84d9-2176a1d04f2b",
    "event_type": "check_in",
    "caregiver_id": "b5583964-a87f-4f29-91eb-e1996bb54ea4"
  },
  {
    "visit_id": "3cd87752-7a8a-4082-997f-640e88bf044f",
    "event_type": "check_in",
    "caregiver_id": "3b4e54f2-85d0-40f2-a058-e2f894b776b4"
  },
  {
    "visit_id": "30a1ced4-22a2-446f-89f3-7b3fbd84063b",
    "event_type": "check_in",
    "caregiver_id": "b5583964-a87f-4f29-91eb-e1996bb54ea4"
  },
  {
    "visit_id": "82af641b-1b44-4bc4-ad31-501d4fbbb127",
    "event_type": "check_in",
    "caregiver_id": "ac3967a6-1392-4227-9987-a201e0f8f287"
  },
  {
    "visit_id": "aaa82c82-5eeb-44d4-be79-4d1834f618d3",
    "event_type": "check_in",
    "caregiver_id": "b5583964-a87f-4f29-91eb-e1996bb54ea4"
  },
  {
    "visit_id": "b85d3d70-0319-4683-bc89-e42d4404fb2a",
    "event_type": "check_in",
    "caregiver_id": "ac3967a6-1392-4227-9987-a201e0f8f287"
  },
  {
    "visit_id": "04c2d115-2751-4ae2-88ff-a9c035c276c9",
    "event_type": "check_in",
    "caregiver_id": "bbb357bd-7bda-47a8-b0be-3c7f781ef3b9"
  },
  {
    "visit_id": "d714004a-d828-4691-ae0c-13bc9e51a197",
    "event_type": "check_in",
    "caregiver_id": "b5583964-a87f-4f29-91eb-e1996bb54ea4"
  },
  {
    "visit_id": "92098885-13f4-4657-8422-8295e3e5f849",
    "event_type": "check_in",
    "caregiver_id": "b50b08f0-c15b-490b-98c0-fbd409aba40b"
  },
  {
    "visit_id": "645901cf-2dec-4b0e-b418-80b00dd2078d",
    "event_type": "check_in",
    "caregiver_id": "ac3967a6-1392-4227-9987-a201e0f8f287"
  },
  {
    "visit_id": "c7353593-96c8-46bc-9dba-9c0bf0c3ff08",
    "event_type": "check_in",
    "caregiver_id": "ac3967a6-1392-4227-9987-a201e0f8f287"
  },
  {
    "visit_id": "0f3c6900-5efa-450a-88fe-bad295c5a0a9",
    "event_type": "check_in",
    "caregiver_id": "ac3967a6-1392-4227-9987-a201e0f8f287"
  },
  {
    "visit_id": "94eb0f11-e187-4f70-8c21-7cb3ab03ea31",
    "event_type": "check_in",
    "caregiver_id": "f4cace06-0a06-4e3b-88c9-716b9931bd87"
  },
  {
    "visit_id": "4cc7ff97-d60e-4e08-b52a-081aa5697e54",
    "event_type": "check_in",
    "caregiver_id": "b5583964-a87f-4f29-91eb-e1996bb54ea4"
  },
  {
    "visit_id": "c20ce172-754a-42d6-9bf8-57eb3b061685",
    "event_type": "check_in",
    "caregiver_id": "56890b44-f575-4d66-840a-b402d19a81e5"
  },
  {
    "visit_id": "def7f367-c693-4a55-9f26-82de6f9d456c",
    "event_type": "check_in",
    "caregiver_id": "b5583964-a87f-4f29-91eb-e1996bb54ea4"
  },
  {
    "visit_id": "104c6813-4d77-4afe-b42d-71e20cca0a7c",
    "event_type": "check_in",
    "caregiver_id": "bbb357bd-7bda-47a8-b0be-3c7f781ef3b9"
  },
  {
    "visit_id": "53519448-a9ad-40a8-934a-e201f1de9394",
    "event_type": "check_in",
    "caregiver_id": "d127173d-beec-4303-a20f-654c7917f1b5"
  },
  {
    "visit_id": "39354e3e-e58e-448a-81e5-89b0f7832a96",
    "event_type": "check_in",
    "caregiver_id": "bbb357bd-7bda-47a8-b0be-3c7f781ef3b9"
  },
  {
    "visit_id": "6f4122b5-64c6-43b5-b98c-9cef3b54cea5",
    "event_type": "check_in",
    "caregiver_id": "56890b44-f575-4d66-840a-b402d19a81e5"
  },
  {
    "visit_id": "7a9c3d80-41d0-4831-bd52-b8973a0a6db1",
    "event_type": "check_in",
    "caregiver_id": "56890b44-f575-4d66-840a-b402d19a81e5"
  },
  {
    "visit_id": "d86b0972-e200-4e6b-99fb-c56b99f6c2d1",
    "event_type": "check_in",
    "caregiver_id": "be278322-9dad-4f6b-8836-402e9a4dfa92"
  },
  {
    "visit_id": "0af8a985-2d1d-4dd9-8be7-a55d8a3dd8ec",
    "event_type": "check_in",
    "caregiver_id": "d127173d-beec-4303-a20f-654c7917f1b5"
  },
  {
    "visit_id": "da43e279-06aa-40d1-895c-8e937300d2c3",
    "event_type": "check_in",
    "caregiver_id": "b5583964-a87f-4f29-91eb-e1996bb54ea4"
  },
  {
    "visit_id": "62485527-dab7-421d-9166-ddaa4d59f203",
    "event_type": "check_in",
    "caregiver_id": "e3cfb141-a107-44f3-adcf-4745ed37661e"
  },
  {
    "visit_id": "cda51435-0bf1-4389-818e-797ce1621579",
    "event_type": "check_in",
    "caregiver_id": "bbb357bd-7bda-47a8-b0be-3c7f781ef3b9"
  },
  {
    "visit_id": "31dc1e5a-ea72-4d41-a4da-b84fb0c71878",
    "event_type": "check_in",
    "caregiver_id": "35099084-dfaf-48ef-b740-93fe2fe18aa1"
  },
  {
    "visit_id": "6d08c4e3-e430-402c-b3ae-e602ea0e0362",
    "event_type": "check_in",
    "caregiver_id": "bbb357bd-7bda-47a8-b0be-3c7f781ef3b9"
  },
  {
    "visit_id": "df6ef94b-c7df-4601-a589-9f44a9b32526",
    "event_type": "check_in",
    "caregiver_id": "b5583964-a87f-4f29-91eb-e1996bb54ea4"
  },
  {
    "visit_id": "3751bbba-c80b-4494-ab05-f1f3c45d1b85",
    "event_type": "check_in",
    "caregiver_id": "b5583964-a87f-4f29-91eb-e1996bb54ea4"
  },
  {
    "visit_id": "b0467784-5298-433d-bcb7-49d09b1e274d",
    "event_type": "check_in",
    "caregiver_id": "b5583964-a87f-4f29-91eb-e1996bb54ea4"
  },
  {
    "visit_id": "394bb93b-2672-41e6-8562-263fbdb6cc41",
    "event_type": "check_in",
    "caregiver_id": "f4cace06-0a06-4e3b-88c9-716b9931bd87"
  },
  {
    "visit_id": "5d0db133-e54c-4f3c-b363-d1f6a3bfb428",
    "event_type": "check_in",
    "caregiver_id": "b5583964-a87f-4f29-91eb-e1996bb54ea4"
  },
  {
    "visit_id": "bcd489e3-ded1-4cd6-8f96-dba99d006818",
    "event_type": "check_in",
    "caregiver_id": "ac3967a6-1392-4227-9987-a201e0f8f287"
  },
  {
    "visit_id": "0886b57c-e021-46e0-b1a7-a45da0cc5941",
    "event_type": "check_in",
    "caregiver_id": "ac3967a6-1392-4227-9987-a201e0f8f287"
  },
  {
    "visit_id": "fd2e9c28-9c12-419b-84e8-04f2499f2823",
    "event_type": "check_in",
    "caregiver_id": "b5583964-a87f-4f29-91eb-e1996bb54ea4"
  },
  {
    "visit_id": "1c5aa696-3a21-48fd-9b02-fd587e445cfb",
    "event_type": "check_in",
    "caregiver_id": "bbb357bd-7bda-47a8-b0be-3c7f781ef3b9"
  },
  {
    "visit_id": "7844e544-ae60-4a72-a6c0-d669880d585f",
    "event_type": "check_in",
    "caregiver_id": "bbb357bd-7bda-47a8-b0be-3c7f781ef3b9"
  },
  {
    "visit_id": "1337ebd3-b7b4-41ff-8494-a77baea51bd7",
    "event_type": "check_in",
    "caregiver_id": "ac3967a6-1392-4227-9987-a201e0f8f287"
  },
  {
    "visit_id": "0c924cac-af29-4022-beac-9bac62ec74e3",
    "event_type": "check_in",
    "caregiver_id": "d127173d-beec-4303-a20f-654c7917f1b5"
  },
  {
    "visit_id": "a9cdcc38-fb48-4c90-9f31-40644671df55",
    "event_type": "check_in",
    "caregiver_id": "35a0ccb6-9339-4c12-a7f5-35883ec002f6"
  },
  {
    "visit_id": "b5dee827-0709-4b2a-8ddb-4666d7db63b2",
    "event_type": "check_in",
    "caregiver_id": "be278322-9dad-4f6b-8836-402e9a4dfa92"
  },
  {
    "visit_id": "1058110e-c1b9-4f20-a528-23097d16c406",
    "event_type": "check_in",
    "caregiver_id": "be278322-9dad-4f6b-8836-402e9a4dfa92"
  },
  {
    "visit_id": "424d2b2d-c09d-4105-aa3f-673e87643859",
    "event_type": "check_in",
    "caregiver_id": "bbb357bd-7bda-47a8-b0be-3c7f781ef3b9"
  },
  {
    "visit_id": "cb5ec917-de54-4492-8724-3c1bb6d12006",
    "event_type": "check_in",
    "caregiver_id": "be278322-9dad-4f6b-8836-402e9a4dfa92"
  },
  {
    "visit_id": "5952b278-f925-49a3-8976-b2193b63b483",
    "event_type": "check_in",
    "caregiver_id": "af87311d-9589-4100-bd5d-c69cfbc3d4f4"
  },
  {
    "visit_id": "c3aaf00d-7759-407b-946b-350b73c341c9",
    "event_type": "check_in",
    "caregiver_id": "b5583964-a87f-4f29-91eb-e1996bb54ea4"
  },
  {
    "visit_id": "055c75d3-4f19-44c4-9d0b-7cf2bb2c1e76",
    "event_type": "check_in",
    "caregiver_id": "35a0ccb6-9339-4c12-a7f5-35883ec002f6"
  },
  {
    "visit_id": "1a07a700-5557-4c4d-a421-1ad8298d8c9f",
    "event_type": "check_in",
    "caregiver_id": "b5583964-a87f-4f29-91eb-e1996bb54ea4"
  },
  {
    "visit_id": "2665304a-941e-4e3a-92e4-16e66dba250e",
    "event_type": "check_in",
    "caregiver_id": "b5583964-a87f-4f29-91eb-e1996bb54ea4"
  },
  {
    "visit_id": "b7c54214-8861-4495-a244-fac62abace70",
    "event_type": "check_in",
    "caregiver_id": "56890b44-f575-4d66-840a-b402d19a81e5"
  },
  {
    "visit_id": "f4b5b21c-f277-4a1d-acf0-72fc10c06071",
    "event_type": "check_in",
    "caregiver_id": "ac3967a6-1392-4227-9987-a201e0f8f287"
  },
  {
    "visit_id": "43b8de74-c955-42a8-a254-9fd359abab4b",
    "event_type": "check_in",
    "caregiver_id": "b50b08f0-c15b-490b-98c0-fbd409aba40b"
  },
  {
    "visit_id": "dc4d6bbe-1add-49a3-8a89-dcc0bd56529a",
    "event_type": "check_in",
    "caregiver_id": "10831d42-8680-4dd7-8c4a-9a2a120630bd"
  },
  {
    "visit_id": "0849c8c0-7ca6-4785-9eda-9e3b1e743e77",
    "event_type": "check_in",
    "caregiver_id": "b5583964-a87f-4f29-91eb-e1996bb54ea4"
  },
  {
    "visit_id": "e7b2c076-2742-4d97-89a4-2c8e92fde808",
    "event_type": "check_in",
    "caregiver_id": "35a0ccb6-9339-4c12-a7f5-35883ec002f6"
  },
  {
    "visit_id": "2fdcb3ef-2d00-4d54-9b79-c18b775af10f",
    "event_type": "check_in",
    "caregiver_id": "ac3967a6-1392-4227-9987-a201e0f8f287"
  },
  {
    "visit_id": "3a1bd38b-cc4f-498e-9572-786618910232",
    "event_type": "check_in",
    "caregiver_id": "bbb357bd-7bda-47a8-b0be-3c7f781ef3b9"
  },
  {
    "visit_id": "cfc229e6-05d2-4127-994e-4da8cbb008cd",
    "event_type": "check_in",
    "caregiver_id": "b5583964-a87f-4f29-91eb-e1996bb54ea4"
  },
  {
    "visit_id": "af5bbc7a-3a95-4cfb-84ab-2431608c9278",
    "event_type": "check_in",
    "caregiver_id": "ac3967a6-1392-4227-9987-a201e0f8f287"
  },
  {
    "visit_id": "e20607ca-55a9-41d4-968c-e28f45d0fcee",
    "event_type": "check_in",
    "caregiver_id": "bbb357bd-7bda-47a8-b0be-3c7f781ef3b9"
  },
  {
    "visit_id": "a84d420e-66d6-4bf5-8974-511e7c9781b2",
    "event_type": "check_in",
    "caregiver_id": "b5583964-a87f-4f29-91eb-e1996bb54ea4"
  },
  {
    "visit_id": "653862a7-b48e-4e8c-a396-c297b02cab63",
    "event_type": "check_in",
    "caregiver_id": "b5583964-a87f-4f29-91eb-e1996bb54ea4"
  },
  {
    "visit_id": "178cf575-7237-4dbd-8719-4413837b4921",
    "event_type": "check_in",
    "caregiver_id": "35a0ccb6-9339-4c12-a7f5-35883ec002f6"
  },
  {
    "visit_id": "d0326345-c833-49a3-be92-e3b26096cfb1",
    "event_type": "check_in",
    "caregiver_id": "f4cace06-0a06-4e3b-88c9-716b9931bd87"
  },
  {
    "visit_id": "32e1f584-fa0e-43b1-a163-72b3a7203e7d",
    "event_type": "check_in",
    "caregiver_id": "b5583964-a87f-4f29-91eb-e1996bb54ea4"
  },
  {
    "visit_id": "6c0075a3-0f9f-4309-9ca3-09b18eefe066",
    "event_type": "check_in",
    "caregiver_id": "ac3967a6-1392-4227-9987-a201e0f8f287"
  },
  {
    "visit_id": "9f7caf8f-9850-477c-9f32-ed9b3a3f058b",
    "event_type": "check_in",
    "caregiver_id": "bbb357bd-7bda-47a8-b0be-3c7f781ef3b9"
  },
  {
    "visit_id": "57b387d5-b307-49b3-8799-120831976387",
    "event_type": "check_in",
    "caregiver_id": "bbb357bd-7bda-47a8-b0be-3c7f781ef3b9"
  },
  {
    "visit_id": "c7a18197-d473-430d-9a5d-73ecf4996dc2",
    "event_type": "check_in",
    "caregiver_id": "af87311d-9589-4100-bd5d-c69cfbc3d4f4"
  },
  {
    "visit_id": "4087cfd3-cbfe-4624-97cb-6eae2c1685a4",
    "event_type": "check_in",
    "caregiver_id": "35099084-dfaf-48ef-b740-93fe2fe18aa1"
  },
  {
    "visit_id": "9d909dbf-8cdf-43b5-9527-5049aa3b0b53",
    "event_type": "check_in",
    "caregiver_id": "35a0ccb6-9339-4c12-a7f5-35883ec002f6"
  },
  {
    "visit_id": "49535629-548d-4160-b351-4efa133dbcb8",
    "event_type": "check_in",
    "caregiver_id": "56890b44-f575-4d66-840a-b402d19a81e5"
  },
  {
    "visit_id": "786cf44c-e2d6-4cb6-8ae3-28b0185e9ba8",
    "event_type": "check_in",
    "caregiver_id": "35a0ccb6-9339-4c12-a7f5-35883ec002f6"
  },
  {
    "visit_id": "bfe0fe96-2a95-4013-8c0a-431c6e74f73d",
    "event_type": "check_in",
    "caregiver_id": "b5583964-a87f-4f29-91eb-e1996bb54ea4"
  },
  {
    "visit_id": "ff544037-3e4e-4c18-bd1c-ae633db4bc6a",
    "event_type": "check_in",
    "caregiver_id": "d127173d-beec-4303-a20f-654c7917f1b5"
  },
  {
    "visit_id": "894015be-7afa-40e2-8f19-537fc1cfba1d",
    "event_type": "check_in",
    "caregiver_id": "421bdf67-bca5-4450-9559-d754ef86cf95"
  },
  {
    "visit_id": "e10b9796-3e20-4de3-9150-6e5af88f9c17",
    "event_type": "check_in",
    "caregiver_id": "bbb357bd-7bda-47a8-b0be-3c7f781ef3b9"
  },
  {
    "visit_id": "4401d558-cad8-4fcc-b936-4bd7586b5728",
    "event_type": "check_in",
    "caregiver_id": "bbb357bd-7bda-47a8-b0be-3c7f781ef3b9"
  },
  {
    "visit_id": "4446fe54-a58f-4aa3-b66d-b68f78c73dfd",
    "event_type": "check_in",
    "caregiver_id": "ac3967a6-1392-4227-9987-a201e0f8f287"
  },
  {
    "visit_id": "0c59fa71-9baf-49a4-8591-a29e231def1e",
    "event_type": "check_in",
    "caregiver_id": "ac3967a6-1392-4227-9987-a201e0f8f287"
  },
  {
    "visit_id": "a51f1803-7ff2-497a-af5b-eec6c3044df7",
    "event_type": "check_in",
    "caregiver_id": "56890b44-f575-4d66-840a-b402d19a81e5"
  },
  {
    "visit_id": "8c7bf48c-8436-44cd-b0ee-c179fc98ce6a",
    "event_type": "check_in",
    "caregiver_id": "35a0ccb6-9339-4c12-a7f5-35883ec002f6"
  },
  {
    "visit_id": "f2182570-1ca3-4639-b4fc-9e5021ce3b85",
    "event_type": "check_in",
    "caregiver_id": "35a0ccb6-9339-4c12-a7f5-35883ec002f6"
  },
  {
    "visit_id": "75d17097-7460-4338-8b62-a500688c2103",
    "event_type": "check_in",
    "caregiver_id": "ac3967a6-1392-4227-9987-a201e0f8f287"
  },
  {
    "visit_id": "6a265f68-503d-4350-b32c-78558e79e6db",
    "event_type": "check_in",
    "caregiver_id": "b5583964-a87f-4f29-91eb-e1996bb54ea4"
  },
  {
    "visit_id": "5b53e96d-ce42-4c0f-8bac-310e50b84194",
    "event_type": "check_in",
    "caregiver_id": "bbb357bd-7bda-47a8-b0be-3c7f781ef3b9"
  },
  {
    "visit_id": "1a4e9d7b-ed67-4e55-b089-d5ddb3bb9493",
    "event_type": "check_in",
    "caregiver_id": "b5583964-a87f-4f29-91eb-e1996bb54ea4"
  },
  {
    "visit_id": "c0a5dad4-20b1-4e92-ba35-7720afc23bfa",
    "event_type": "check_in",
    "caregiver_id": "ac3967a6-1392-4227-9987-a201e0f8f287"
  },
  {
    "visit_id": "b37611d6-1831-4d8d-bc19-1fd63a7c2295",
    "event_type": "check_in",
    "caregiver_id": "ac3967a6-1392-4227-9987-a201e0f8f287"
  },
  {
    "visit_id": "3eb5be17-ba87-4ea4-b402-f62b7c751065",
    "event_type": "check_in",
    "caregiver_id": "ac3967a6-1392-4227-9987-a201e0f8f287"
  },
  {
    "visit_id": "a0e66d29-e109-4634-92b9-2ebbbc721497",
    "event_type": "check_in",
    "caregiver_id": "bbb357bd-7bda-47a8-b0be-3c7f781ef3b9"
  },
  {
    "visit_id": "673c8125-0850-4b0b-8a86-972a302b318b",
    "event_type": "check_in",
    "caregiver_id": "ac3967a6-1392-4227-9987-a201e0f8f287"
  },
  {
    "visit_id": "5db45b5a-b4a4-4007-a7a9-207e5087c11b",
    "event_type": "check_in",
    "caregiver_id": "b5583964-a87f-4f29-91eb-e1996bb54ea4"
  },
  {
    "visit_id": "479361db-00cb-4de8-a3da-577a6cfe4812",
    "event_type": "check_in",
    "caregiver_id": "b5583964-a87f-4f29-91eb-e1996bb54ea4"
  },
  {
    "visit_id": "655c607c-620c-4978-bae3-76b91722698e",
    "event_type": "check_in",
    "caregiver_id": "1d566baa-19bb-4d9f-b088-0b37f35cf1ff"
  },
  {
    "visit_id": "d101648a-f198-468a-b037-dc2448953315",
    "event_type": "check_in",
    "caregiver_id": "878d9b60-d15d-474f-bd41-5dc3d01ab894"
  },
  {
    "visit_id": "87148b29-2939-484c-9ae1-b8656a1298bf",
    "event_type": "check_in",
    "caregiver_id": "183ed034-359b-4dab-9f7f-681f26c0c144"
  },
  {
    "visit_id": "b4102351-67fc-42b5-b8a8-039e7dd7dc75",
    "event_type": "check_in",
    "caregiver_id": "94259f35-07af-4896-8d9e-737381040bce"
  },
  {
    "visit_id": "c5ddcae5-75f7-4bf0-9114-1c2a643488f3",
    "event_type": "check_in",
    "caregiver_id": "d8d66637-c3d6-4c58-a254-3b274a031fec"
  },
  {
    "visit_id": "ef22785b-4b73-4099-bb03-d7d5e5b7fb11",
    "event_type": "check_in",
    "caregiver_id": "d8d66637-c3d6-4c58-a254-3b274a031fec"
  },
  {
    "visit_id": "b020e431-00b4-4769-839f-9f65fe3a82b6",
    "event_type": "check_in",
    "caregiver_id": "0785703a-ee62-44b7-b4e1-9ac449e4ddef"
  },
  {
    "visit_id": "9b42ec5a-b555-4533-b5b7-3113c99963a7",
    "event_type": "check_in",
    "caregiver_id": "e00e5757-8760-4f6b-bf44-0a2f613e0127"
  },
  {
    "visit_id": "81b8a85a-c665-499e-8cdc-6004800eed79",
    "event_type": "check_in",
    "caregiver_id": "d8d66637-c3d6-4c58-a254-3b274a031fec"
  },
  {
    "visit_id": "2b47419f-656d-45d6-a510-09a68cb83942",
    "event_type": "check_in",
    "caregiver_id": "1d566baa-19bb-4d9f-b088-0b37f35cf1ff"
  },
  {
    "visit_id": "543e9f57-0ca3-4d71-8254-33cd3e4786f4",
    "event_type": "check_in",
    "caregiver_id": "0785703a-ee62-44b7-b4e1-9ac449e4ddef"
  },
  {
    "visit_id": "27e6ed82-412a-45bf-a2d8-91265a1e7d85",
    "event_type": "check_in",
    "caregiver_id": "d8d66637-c3d6-4c58-a254-3b274a031fec"
  },
  {
    "visit_id": "99f2d3e5-1b7b-4a60-9042-ecebba1a21a9",
    "event_type": "check_in",
    "caregiver_id": "d8d66637-c3d6-4c58-a254-3b274a031fec"
  },
  {
    "visit_id": "0b8c5531-7c7b-423f-8836-e607f840470b",
    "event_type": "check_in",
    "caregiver_id": "1d566baa-19bb-4d9f-b088-0b37f35cf1ff"
  },
  {
    "visit_id": "5dfa0c1c-71a6-457c-86e0-a52f8e24781a",
    "event_type": "check_in",
    "caregiver_id": "e00e5757-8760-4f6b-bf44-0a2f613e0127"
  },
  {
    "visit_id": "37f5dc0f-a122-472e-bd28-6984b8441903",
    "event_type": "check_in",
    "caregiver_id": "d8d66637-c3d6-4c58-a254-3b274a031fec"
  },
  {
    "visit_id": "e768818e-1e08-44b7-8ff1-e1b7b4d156f2",
    "event_type": "check_in",
    "caregiver_id": "d8d66637-c3d6-4c58-a254-3b274a031fec"
  },
  {
    "visit_id": "12cb8ff1-539b-4bbc-ab73-5b358a9aee43",
    "event_type": "check_in",
    "caregiver_id": "1d566baa-19bb-4d9f-b088-0b37f35cf1ff"
  },
  {
    "visit_id": "53a29ada-f9b6-437f-8940-37808a881485",
    "event_type": "check_in",
    "caregiver_id": "d8d66637-c3d6-4c58-a254-3b274a031fec"
  },
  {
    "visit_id": "f7deea54-8de7-4bd6-897b-c7f75ca2865c",
    "event_type": "check_in",
    "caregiver_id": "d8d66637-c3d6-4c58-a254-3b274a031fec"
  },
  {
    "visit_id": "c037fc9c-b335-4786-9f93-d7091489c46a",
    "event_type": "check_in",
    "caregiver_id": "d8d66637-c3d6-4c58-a254-3b274a031fec"
  },
  {
    "visit_id": "3b9f786c-6634-41c3-87fd-643412e389df",
    "event_type": "check_in",
    "caregiver_id": "d8d66637-c3d6-4c58-a254-3b274a031fec"
  },
  {
    "visit_id": "9cb44128-4627-41e1-a35c-d966f32dffa1",
    "event_type": "check_in",
    "caregiver_id": "7cbe395d-b0cb-434a-8865-948c1bc188ec"
  },
  {
    "visit_id": "d22466ec-c486-40c8-b93c-dc8254effc59",
    "event_type": "check_in",
    "caregiver_id": "d8d66637-c3d6-4c58-a254-3b274a031fec"
  },
  {
    "visit_id": "0647fc92-4b9a-4927-ab78-40c8be734aee",
    "event_type": "check_in",
    "caregiver_id": "d8d66637-c3d6-4c58-a254-3b274a031fec"
  },
  {
    "visit_id": "4ad2d3f6-0274-4070-ab4c-ac94d3ced923",
    "event_type": "check_in",
    "caregiver_id": "1d566baa-19bb-4d9f-b088-0b37f35cf1ff"
  },
  {
    "visit_id": "d0d1b96d-0d75-4e6e-b203-cddb4eac9eef",
    "event_type": "check_in",
    "caregiver_id": "d8d66637-c3d6-4c58-a254-3b274a031fec"
  },
  {
    "visit_id": "8d0407a5-1cd5-4d0f-ae14-8aef6909a71e",
    "event_type": "check_in",
    "caregiver_id": "0785703a-ee62-44b7-b4e1-9ac449e4ddef"
  },
  {
    "visit_id": "5996099f-f8ed-4d71-97e0-d88292fa4510",
    "event_type": "check_in",
    "caregiver_id": "d8d66637-c3d6-4c58-a254-3b274a031fec"
  },
  {
    "visit_id": "83c09a46-20fc-4ad7-89fe-ab4f07f3f646",
    "event_type": "check_in",
    "caregiver_id": "019984a8-c36c-430a-baf6-d668a790ef4f"
  },
  {
    "visit_id": "e9d28012-aab6-4f82-8489-cdf996a13130",
    "event_type": "check_in",
    "caregiver_id": "d8d66637-c3d6-4c58-a254-3b274a031fec"
  },
  {
    "visit_id": "b2284a27-3b78-4ae8-acaa-86131472c94b",
    "event_type": "check_in",
    "caregiver_id": "1d566baa-19bb-4d9f-b088-0b37f35cf1ff"
  },
  {
    "visit_id": "8ce8acbb-effa-43cc-a29f-24d6c5dc4587",
    "event_type": "check_in",
    "caregiver_id": "1d566baa-19bb-4d9f-b088-0b37f35cf1ff"
  },
  {
    "visit_id": "dfbf62a8-2f68-4f47-9b4f-90afa91c7c0f",
    "event_type": "check_in",
    "caregiver_id": "878d9b60-d15d-474f-bd41-5dc3d01ab894"
  },
  {
    "visit_id": "af4afbea-4857-4c73-a0f7-45e12c454489",
    "event_type": "check_in",
    "caregiver_id": "1d566baa-19bb-4d9f-b088-0b37f35cf1ff"
  },
  {
    "visit_id": "9fbaf478-92e5-4c90-9b28-3ccdcae37bf5",
    "event_type": "check_in",
    "caregiver_id": "1d566baa-19bb-4d9f-b088-0b37f35cf1ff"
  },
  {
    "visit_id": "c38c6fa9-d928-4e85-9125-3986e177e792",
    "event_type": "check_in",
    "caregiver_id": "e00e5757-8760-4f6b-bf44-0a2f613e0127"
  },
  {
    "visit_id": "b68e4a53-f6df-4ae5-84e1-c3ed5830e00f",
    "event_type": "check_in",
    "caregiver_id": "019984a8-c36c-430a-baf6-d668a790ef4f"
  },
  {
    "visit_id": "4c9d20fc-c65d-4ddc-9212-937c453c60be",
    "event_type": "check_in",
    "caregiver_id": "d8d66637-c3d6-4c58-a254-3b274a031fec"
  },
  {
    "visit_id": "5cbf98f0-8b66-f8a8-46cc-259953fc9c2a",
    "event_type": "check_in",
    "caregiver_id": "ca216495-6806-4ecb-974d-e7ece2e9e5b5"
  },
  {
    "visit_id": "5cd753f0-8b66-f8a8-4591-3f78ca3f9c45",
    "event_type": "check_in",
    "caregiver_id": "3cacba0a-6041-11e9-b63f-06a80bfbb33e"
  },
  {
    "visit_id": "2ddc72c1-521f-11e9-b63f-06a80bfbb33e",
    "event_type": "check_in",
    "caregiver_id": "f7a00df5-bbc4-4ad7-9918-c07e16e709f6"
  },
  {
    "visit_id": "5cd753f0-8b66-f8a8-4275-60ef0c0ee1d5",
    "event_type": "check_in",
    "caregiver_id": "f7a00df5-bbc4-4ad7-9918-c07e16e709f6"
  },
  {
    "visit_id": "5cbf98f0-8b66-f8a8-4c8a-35bb6b8c9cbe",
    "event_type": "check_in",
    "caregiver_id": "5c9090ab-7d5e-4a72-8bf7-197190ad4c98"
  },
  {
    "visit_id": "5cc63070-8b66-f8a8-435e-4b7ad12dc9a0",
    "event_type": "check_in",
    "caregiver_id": "ca216495-6806-4ecb-974d-e7ece2e9e5b5"
  },
  {
    "visit_id": "5cc4def0-8b66-f8a8-4275-60ef0c0ee1d5",
    "event_type": "check_in",
    "caregiver_id": "17541b2e-710d-430f-a0a3-2fb4a3285946"
  },
  {
    "visit_id": "5cc23bf0-8b66-f8a8-4fe1-2c8af8a4e18e",
    "event_type": "check_in",
    "caregiver_id": "ca216495-6806-4ecb-974d-e7ece2e9e5b5"
  },
  {
    "visit_id": "5cbf98f0-8b66-f8a8-46cc-259953fc9c2a",
    "event_type": "check_in",
    "caregiver_id": "868ffde9-b069-4af5-8835-c4ac4e72e4b5"
  },
  {
    "visit_id": "5cd20df0-8b66-f8a8-4289-4c465ec9e133",
    "event_type": "check_in",
    "caregiver_id": "5c9090ab-7d5e-4a72-8bf7-197190ad4c98"
  },
  {
    "visit_id": "5cc23bf0-8b66-f8a8-406f-e53b5740e11b",
    "event_type": "check_in",
    "caregiver_id": "220d9432-b5ed-4c81-8709-434899d2cd1b"
  },
  {
    "visit_id": "5cd20df0-8b66-f8a8-4777-f81c6d4b9c65",
    "event_type": "check_in",
    "caregiver_id": "868ffde9-b069-4af5-8835-c4ac4e72e4b5"
  },
  {
    "visit_id": "5cc4def0-8b66-f8a8-41e5-e67f68359c5c",
    "event_type": "check_in",
    "caregiver_id": "17541b2e-710d-430f-a0a3-2fb4a3285946"
  },
  {
    "visit_id": "2ddc3ca7-521f-11e9-b63f-06a80bfbb33e",
    "event_type": "check_in",
    "caregiver_id": "3cacba0a-6041-11e9-b63f-06a80bfbb33e"
  },
  {
    "visit_id": "5cc8d370-8b66-f8a8-49c6-d658a1d59cd3",
    "event_type": "check_in",
    "caregiver_id": "f7a00df5-bbc4-4ad7-9918-c07e16e709f6"
  },
  {
    "visit_id": "5cc4def0-8b66-f8a8-41e5-e67f68359c5c",
    "event_type": "check_in",
    "caregiver_id": "5c9090ab-7d5e-4a72-8bf7-197190ad4c98"
  },
  {
    "visit_id": "5cd20df0-8b66-f8a8-4289-4c465ec9e133",
    "event_type": "check_in",
    "caregiver_id": "f7a00df5-bbc4-4ad7-9918-c07e16e709f6"
  },
  {
    "visit_id": "2ddc98e8-521f-11e9-b63f-06a80bfbb33e",
    "event_type": "check_in",
    "caregiver_id": "5c9090ab-7d5e-4a72-8bf7-197190ad4c98"
  },
  {
    "visit_id": "5cd753f0-8b66-f8a8-41e5-e67f68359c5c",
    "event_type": "check_in",
    "caregiver_id": "5c9090ab-7d5e-4a72-8bf7-197190ad4c98"
  },
  {
    "visit_id": "5cc63070-8b66-f8a8-471d-d227129b9c78",
    "event_type": "check_in",
    "caregiver_id": "ca216495-6806-4ecb-974d-e7ece2e9e5b5"
  },
  {
    "visit_id": "5cd20df0-8b66-f8a8-46cc-259953fc9c2a",
    "event_type": "check_in",
    "caregiver_id": "5c9090ab-7d5e-4a72-8bf7-197190ad4c98"
  },
  {
    "visit_id": "5cc781f0-8b66-f8a8-4b30-7a5630adca0c",
    "event_type": "check_in",
    "caregiver_id": "764c8a29-ee13-4d0b-9fc5-23aec8c27d1b"
  },
  {
    "visit_id": "5cc23bf0-8b66-f8a8-4339-688e1d43e11a",
    "event_type": "check_in",
    "caregiver_id": "764c8a29-ee13-4d0b-9fc5-23aec8c27d1b"
  },
  {
    "visit_id": "5ccf6af0-8b66-f8a8-4a23-cc2c0dc8e14f",
    "event_type": "check_in",
    "caregiver_id": "f7a00df5-bbc4-4ad7-9918-c07e16e709f6"
  },
  {
    "visit_id": "5cca24f0-8b66-f8a8-4311-d6de68649c7b",
    "event_type": "check_in",
    "caregiver_id": "f7a00df5-bbc4-4ad7-9918-c07e16e709f6"
  },
  {
    "visit_id": "5cd753f0-8b66-f8a8-43f7-330f62a3e1d6",
    "event_type": "check_in",
    "caregiver_id": "f7a00df5-bbc4-4ad7-9918-c07e16e709f6"
  },
  {
    "visit_id": "5cd0bc70-8b66-f8a8-4ae1-80868e9de145",
    "event_type": "check_in",
    "caregiver_id": "f8651589-8e43-4787-a061-9a504579c999"
  },
  {
    "visit_id": "2ddc6ee4-521f-11e9-b63f-06a80bfbb33e",
    "event_type": "check_in",
    "caregiver_id": "ca216495-6806-4ecb-974d-e7ece2e9e5b5"
  },
  {
    "visit_id": "5cd20df0-8b66-f8a8-4c8a-35bb6b8c9cbe",
    "event_type": "check_in",
    "caregiver_id": "5c9090ab-7d5e-4a72-8bf7-197190ad4c98"
  },
  {
    "visit_id": "5ccf6af0-8b66-f8a8-4c03-d1151298e152",
    "event_type": "check_in",
    "caregiver_id": "f8651589-8e43-4787-a061-9a504579c999"
  },
  {
    "visit_id": "2ddc37a6-521f-11e9-b63f-06a80bfbb33e",
    "event_type": "check_in",
    "caregiver_id": "49775586-020b-431d-9e84-614993670130"
  },
  {
    "visit_id": "5cc23bf0-8b66-f8a8-4339-688e1d43e11a",
    "event_type": "check_in",
    "caregiver_id": "220d9432-b5ed-4c81-8709-434899d2cd1b"
  },
  {
    "visit_id": "5cbe4770-8b66-f8a8-45fa-db0b393fe188",
    "event_type": "check_in",
    "caregiver_id": "764c8a29-ee13-4d0b-9fc5-23aec8c27d1b"
  },
  {
    "visit_id": "2ddc98e8-521f-11e9-b63f-06a80bfbb33e",
    "event_type": "check_in",
    "caregiver_id": "49775586-020b-431d-9e84-614993670130"
  },
  {
    "visit_id": "5cc38d70-8b66-f8a8-4e18-92ddbe4fc996",
    "event_type": "check_in",
    "caregiver_id": "764c8a29-ee13-4d0b-9fc5-23aec8c27d1b"
  },
  {
    "visit_id": "5cd753f0-8b66-f8a8-41e5-e67f68359c5c",
    "event_type": "check_in",
    "caregiver_id": "3cacba0a-6041-11e9-b63f-06a80bfbb33e"
  },
  {
    "visit_id": "5cc63070-8b66-f8a8-435e-4b7ad12dc9a0",
    "event_type": "check_in",
    "caregiver_id": "f7a00df5-bbc4-4ad7-9918-c07e16e709f6"
  },
  {
    "visit_id": "5ccb7670-8b66-f8a8-4db7-58c55cf8c9a2",
    "event_type": "check_in",
    "caregiver_id": "f7a00df5-bbc4-4ad7-9918-c07e16e709f6"
  },
  {
    "visit_id": "5cce1970-8b66-f8a8-4f57-664f682ae36d",
    "event_type": "check_in",
    "caregiver_id": "f7a00df5-bbc4-4ad7-9918-c07e16e709f6"
  },
  {
    "visit_id": "2ddc7412-521f-11e9-b63f-06a80bfbb33e",
    "event_type": "check_in",
    "caregiver_id": "06e4f68e-8aec-4dac-ad5c-7cd6b98b0926"
  },
  {
    "visit_id": "2ddcad43-521f-11e9-b63f-06a80bfbb33e",
    "event_type": "check_in",
    "caregiver_id": "220d9432-b5ed-4c81-8709-434899d2cd1b"
  },
  {
    "visit_id": "5ccf6af0-8b66-f8a8-42d4-2cb7f37ae182",
    "event_type": "check_in",
    "caregiver_id": "220d9432-b5ed-4c81-8709-434899d2cd1b"
  },
  {
    "visit_id": "5cd0bc70-8b66-f8a8-4ae1-80868e9de145",
    "event_type": "check_in",
    "caregiver_id": "220d9432-b5ed-4c81-8709-434899d2cd1b"
  },
  {
    "visit_id": "5cbf98f0-8b66-f8a8-4c8a-35bb6b8c9cbe",
    "event_type": "check_in",
    "caregiver_id": "17541b2e-710d-430f-a0a3-2fb4a3285946"
  },
  {
    "visit_id": "5cd4b0f0-8b66-f8a8-4900-34da6bf2e11e",
    "event_type": "check_in",
    "caregiver_id": "ca216495-6806-4ecb-974d-e7ece2e9e5b5"
  },
  {
    "visit_id": "5cc8d370-8b66-f8a8-44c5-927e26c9af15",
    "event_type": "check_in",
    "caregiver_id": "17541b2e-710d-430f-a0a3-2fb4a3285946"
  },
  {
    "visit_id": "5cca24f0-8b66-f8a8-4980-bc5102309c42",
    "event_type": "check_in",
    "caregiver_id": "5c9090ab-7d5e-4a72-8bf7-197190ad4c98"
  },
  {
    "visit_id": "5ccb7670-8b66-f8a8-441c-2d6f6f029c56",
    "event_type": "check_in",
    "caregiver_id": "5c9090ab-7d5e-4a72-8bf7-197190ad4c98"
  },
  {
    "visit_id": "5cca24f0-8b66-f8a8-4311-d6de68649c7b",
    "event_type": "check_in",
    "caregiver_id": "ca216495-6806-4ecb-974d-e7ece2e9e5b5"
  },
  {
    "visit_id": "5cc4def0-8b66-f8a8-43f7-330f62a3e1d6",
    "event_type": "check_in",
    "caregiver_id": "f7a00df5-bbc4-4ad7-9918-c07e16e709f6"
  },
  {
    "visit_id": "5cd20df0-8b66-f8a8-4777-f81c6d4b9c65",
    "event_type": "check_in",
    "caregiver_id": "f7a00df5-bbc4-4ad7-9918-c07e16e709f6"
  },
  {
    "visit_id": "5ccb7670-8b66-f8a8-48ca-1c06125a9c4c",
    "event_type": "check_in",
    "caregiver_id": "5c9090ab-7d5e-4a72-8bf7-197190ad4c98"
  },
  {
    "visit_id": "5cbf98f0-8b66-f8a8-4777-f81c6d4b9c65",
    "event_type": "check_in",
    "caregiver_id": "17541b2e-710d-430f-a0a3-2fb4a3285946"
  },
  {
    "visit_id": "5cc0ea70-8b66-f8a8-476a-33df4fd1c994",
    "event_type": "check_in",
    "caregiver_id": "764c8a29-ee13-4d0b-9fc5-23aec8c27d1b"
  },
  {
    "visit_id": "2ddc7412-521f-11e9-b63f-06a80bfbb33e",
    "event_type": "check_in",
    "caregiver_id": "5c9090ab-7d5e-4a72-8bf7-197190ad4c98"
  },
  {
    "visit_id": "5cc38d70-8b66-f8a8-412c-282fc4ca9c44",
    "event_type": "check_in",
    "caregiver_id": "f7a00df5-bbc4-4ad7-9918-c07e16e709f6"
  },
  {
    "visit_id": "5cd60270-8b66-f8a8-43cd-d33f75289c68",
    "event_type": "check_in",
    "caregiver_id": "5c9090ab-7d5e-4a72-8bf7-197190ad4c98"
  },
  {
    "visit_id": "2ddc3ca7-521f-11e9-b63f-06a80bfbb33e",
    "event_type": "check_in",
    "caregiver_id": "49775586-020b-431d-9e84-614993670130"
  },
  {
    "visit_id": "2ddc77cd-521f-11e9-b63f-06a80bfbb33e",
    "event_type": "check_in",
    "caregiver_id": "5c9090ab-7d5e-4a72-8bf7-197190ad4c98"
  },
  {
    "visit_id": "2ddc72c1-521f-11e9-b63f-06a80bfbb33e",
    "event_type": "check_in",
    "caregiver_id": "8b7d80d7-f01f-4f4c-921e-d4d6ebf9c13c"
  },
  {
    "visit_id": "5cc0ea70-8b66-f8a8-41d1-7036a801e12e",
    "event_type": "check_in",
    "caregiver_id": "764c8a29-ee13-4d0b-9fc5-23aec8c27d1b"
  },
  {
    "visit_id": "5cc0ea70-8b66-f8a8-476a-33df4fd1c994",
    "event_type": "check_in",
    "caregiver_id": "220d9432-b5ed-4c81-8709-434899d2cd1b"
  },
  {
    "visit_id": "5ccf6af0-8b66-f8a8-4773-8d6e8de8e14c",
    "event_type": "check_in",
    "caregiver_id": "5ca42f72-9e70-4b8d-b8be-da5ed779b586"
  },
  {
    "visit_id": "5cd60270-8b66-f8a8-412c-282fc4ca9c44",
    "event_type": "check_in",
    "caregiver_id": "ca216495-6806-4ecb-974d-e7ece2e9e5b5"
  },
  {
    "visit_id": "5cd60270-8b66-f8a8-4e18-92ddbe4fc996",
    "event_type": "check_in",
    "caregiver_id": "5c9090ab-7d5e-4a72-8bf7-197190ad4c98"
  },
  {
    "visit_id": "5cc63070-8b66-f8a8-4724-013f02faf47f",
    "event_type": "check_in",
    "caregiver_id": "764c8a29-ee13-4d0b-9fc5-23aec8c27d1b"
  },
  {
    "visit_id": "5cc781f0-8b66-f8a8-4c03-6cf7afbc9c79",
    "event_type": "check_in",
    "caregiver_id": "764c8a29-ee13-4d0b-9fc5-23aec8c27d1b"
  },
  {
    "visit_id": "5ccb7670-8b66-f8a8-4517-250041f19c7c",
    "event_type": "check_in",
    "caregiver_id": "f7a00df5-bbc4-4ad7-9918-c07e16e709f6"
  },
  {
    "visit_id": "5cc38d70-8b66-f8a8-43cd-d33f75289c68",
    "event_type": "check_in",
    "caregiver_id": "764c8a29-ee13-4d0b-9fc5-23aec8c27d1b"
  },
  {
    "visit_id": "5cce1970-8b66-f8a8-44fc-d839a2f59c7e",
    "event_type": "check_in",
    "caregiver_id": "f8651589-8e43-4787-a061-9a504579c999"
  },
  {
    "visit_id": "5cc63070-8b66-f8a8-40e9-409542daf47c",
    "event_type": "check_in",
    "caregiver_id": "764c8a29-ee13-4d0b-9fc5-23aec8c27d1b"
  },
  {
    "visit_id": "5cd4b0f0-8b66-f8a8-4900-34da6bf2e11e",
    "event_type": "check_in",
    "caregiver_id": "5c9090ab-7d5e-4a72-8bf7-197190ad4c98"
  },
  {
    "visit_id": "5cccc7f0-8b66-f8a8-461c-ff0199549c4d",
    "event_type": "check_in",
    "caregiver_id": "47a19eae-5786-11e9-b63f-06a80bfbb33e"
  },
  {
    "visit_id": "5cc4def0-8b66-f8a8-4591-3f78ca3f9c45",
    "event_type": "check_in",
    "caregiver_id": "17541b2e-710d-430f-a0a3-2fb4a3285946"
  },
  {
    "visit_id": "5cc0ea70-8b66-f8a8-41d1-7036a801e12e",
    "event_type": "check_in",
    "caregiver_id": "220d9432-b5ed-4c81-8709-434899d2cd1b"
  },
  {
    "visit_id": "5cd0bc70-8b66-f8a8-45fa-db0b393fe188",
    "event_type": "check_in",
    "caregiver_id": "220d9432-b5ed-4c81-8709-434899d2cd1b"
  },
  {
    "visit_id": "5cc8d370-8b66-f8a8-44c5-927e26c9af15",
    "event_type": "check_in",
    "caregiver_id": "5c9090ab-7d5e-4a72-8bf7-197190ad4c98"
  },
  {
    "visit_id": "5cd0bc70-8b66-f8a8-4878-b1e35339e141",
    "event_type": "check_in",
    "caregiver_id": "49775586-020b-431d-9e84-614993670130"
  },
  {
    "visit_id": "5ccf6af0-8b66-f8a8-4c03-d1151298e152",
    "event_type": "check_in",
    "caregiver_id": "220d9432-b5ed-4c81-8709-434899d2cd1b"
  },
  {
    "visit_id": "5ccb7670-8b66-f8a8-4517-250041f19c7c",
    "event_type": "check_in",
    "caregiver_id": "ca216495-6806-4ecb-974d-e7ece2e9e5b5"
  },
  {
    "visit_id": "5cccc7f0-8b66-f8a8-461c-ff0199549c4d",
    "event_type": "check_in",
    "caregiver_id": "49775586-020b-431d-9e84-614993670130"
  },
  {
    "visit_id": "5cbe4770-8b66-f8a8-45fa-db0b393fe188",
    "event_type": "check_in",
    "caregiver_id": "220d9432-b5ed-4c81-8709-434899d2cd1b"
  },
  {
    "visit_id": "5cce1970-8b66-f8a8-44fc-d839a2f59c7e",
    "event_type": "check_in",
    "caregiver_id": "220d9432-b5ed-4c81-8709-434899d2cd1b"
  },
  {
    "visit_id": "5cbe4770-8b66-f8a8-4ae1-80868e9de145",
    "event_type": "check_in",
    "caregiver_id": "764c8a29-ee13-4d0b-9fc5-23aec8c27d1b"
  },
  {
    "visit_id": "5cca24f0-8b66-f8a8-4b4a-e49c2e809c3d",
    "event_type": "check_in",
    "caregiver_id": "764c8a29-ee13-4d0b-9fc5-23aec8c27d1b"
  },
  {
    "visit_id": "5cc4def0-8b66-f8a8-43f7-330f62a3e1d6",
    "event_type": "check_in",
    "caregiver_id": "5c9090ab-7d5e-4a72-8bf7-197190ad4c98"
  },
  {
    "visit_id": "5cd0bc70-8b66-f8a8-4878-b1e35339e141",
    "event_type": "check_in",
    "caregiver_id": "f7a00df5-bbc4-4ad7-9918-c07e16e709f6"
  },
  {
    "visit_id": "5cc38d70-8b66-f8a8-43cd-d33f75289c68",
    "event_type": "check_in",
    "caregiver_id": "ca216495-6806-4ecb-974d-e7ece2e9e5b5"
  },
  {
    "visit_id": "5cbe4770-8b66-f8a8-4878-b1e35339e141",
    "event_type": "check_in",
    "caregiver_id": "8b7d80d7-f01f-4f4c-921e-d4d6ebf9c13c"
  },
  {
    "visit_id": "5cc63070-8b66-f8a8-40e9-409542daf47c",
    "event_type": "check_in",
    "caregiver_id": "220d9432-b5ed-4c81-8709-434899d2cd1b"
  },
  {
    "visit_id": "5cd20df0-8b66-f8a8-4c8a-35bb6b8c9cbe",
    "event_type": "check_in",
    "caregiver_id": "868ffde9-b069-4af5-8835-c4ac4e72e4b5"
  },
  {
    "visit_id": "5cd4b0f0-8b66-f8a8-4fe1-2c8af8a4e18e",
    "event_type": "check_in",
    "caregiver_id": "ca216495-6806-4ecb-974d-e7ece2e9e5b5"
  },
  {
    "visit_id": "2ddc77cd-521f-11e9-b63f-06a80bfbb33e",
    "event_type": "check_in",
    "caregiver_id": "5ca42f72-9e70-4b8d-b8be-da5ed779b586"
  },
  {
    "visit_id": "5cc23bf0-8b66-f8a8-4900-34da6bf2e11e",
    "event_type": "check_in",
    "caregiver_id": "63f3eb22-80ed-4b04-b7e0-35fee66bf30a"
  },
  {
    "visit_id": "5cbe4770-8b66-f8a8-4878-b1e35339e141",
    "event_type": "check_in",
    "caregiver_id": "868ffde9-b069-4af5-8835-c4ac4e72e4b5"
  },
  {
    "visit_id": "5cc38d70-8b66-f8a8-4e18-92ddbe4fc996",
    "event_type": "check_in",
    "caregiver_id": "ca216495-6806-4ecb-974d-e7ece2e9e5b5"
  },
  {
    "visit_id": "5cca24f0-8b66-f8a8-4980-bc5102309c42",
    "event_type": "check_in",
    "caregiver_id": "764c8a29-ee13-4d0b-9fc5-23aec8c27d1b"
  },
  {
    "visit_id": "5ccb7670-8b66-f8a8-48ca-1c06125a9c4c",
    "event_type": "check_in",
    "caregiver_id": "764c8a29-ee13-4d0b-9fc5-23aec8c27d1b"
  },
  {
    "visit_id": "2ddc6ee4-521f-11e9-b63f-06a80bfbb33e",
    "event_type": "check_in",
    "caregiver_id": "868ffde9-b069-4af5-8835-c4ac4e72e4b5"
  },
  {
    "visit_id": "5cc781f0-8b66-f8a8-43f3-5c958d04af16",
    "event_type": "check_in",
    "caregiver_id": "ec58a13f-a370-4eee-8000-649808791f7f"
  },
  {
    "visit_id": "5cbf98f0-8b66-f8a8-4777-f81c6d4b9c65",
    "event_type": "check_in",
    "caregiver_id": "5c9090ab-7d5e-4a72-8bf7-197190ad4c98"
  },
  {
    "visit_id": "5cc38d70-8b66-f8a8-412c-282fc4ca9c44",
    "event_type": "check_in",
    "caregiver_id": "63f3eb22-80ed-4b04-b7e0-35fee66bf30a"
  },
  {
    "visit_id": "5cc4def0-8b66-f8a8-4591-3f78ca3f9c45",
    "event_type": "check_in",
    "caregiver_id": "d23ea4a7-cdbd-4473-9f0b-a5daf77aaf61"
  },
  {
    "visit_id": "5cccc7f0-8b66-f8a8-41e6-fe293a369cd6",
    "event_type": "check_in",
    "caregiver_id": "220d9432-b5ed-4c81-8709-434899d2cd1b"
  },
  {
    "visit_id": "5cd60270-8b66-f8a8-4e4a-591e21019c57",
    "event_type": "check_in",
    "caregiver_id": "5c9090ab-7d5e-4a72-8bf7-197190ad4c98"
  },
  {
    "visit_id": "5cc63070-8b66-f8a8-4724-013f02faf47f",
    "event_type": "check_in",
    "caregiver_id": "220d9432-b5ed-4c81-8709-434899d2cd1b"
  },
  {
    "visit_id": "5cccc7f0-8b66-f8a8-44b6-2839a59c9c7d",
    "event_type": "check_in",
    "caregiver_id": "f8651589-8e43-4787-a061-9a504579c999"
  },
  {
    "visit_id": "5cc38d70-8b66-f8a8-4e4a-591e21019c57",
    "event_type": "check_in",
    "caregiver_id": "f7a00df5-bbc4-4ad7-9918-c07e16e709f6"
  },
  {
    "visit_id": "5cc63070-8b66-f8a8-471d-d227129b9c78",
    "event_type": "check_in",
    "caregiver_id": "f7a00df5-bbc4-4ad7-9918-c07e16e709f6"
  },
  {
    "visit_id": "5cd60270-8b66-f8a8-412c-282fc4ca9c44",
    "event_type": "check_in",
    "caregiver_id": "868ffde9-b069-4af5-8835-c4ac4e72e4b5"
  },
  {
    "visit_id": "5cd20df0-8b66-f8a8-46cc-259953fc9c2a",
    "event_type": "check_in",
    "caregiver_id": "f7a00df5-bbc4-4ad7-9918-c07e16e709f6"
  },
  {
    "visit_id": "5ccb7670-8b66-f8a8-441c-2d6f6f029c56",
    "event_type": "check_in",
    "caregiver_id": "764c8a29-ee13-4d0b-9fc5-23aec8c27d1b"
  },
  {
    "visit_id": "5cd753f0-8b66-f8a8-4591-3f78ca3f9c45",
    "event_type": "check_in",
    "caregiver_id": "3cacba0a-6041-11e9-b63f-06a80bfbb33e"
  },
  {
    "visit_id": "5cce1970-8b66-f8a8-4e3a-a21099829cd7",
    "event_type": "check_in",
    "caregiver_id": "f8651589-8e43-4787-a061-9a504579c999"
  },
  {
    "visit_id": "5cc8d370-8b66-f8a8-4b29-73cb9aa6af17",
    "event_type": "check_in",
    "caregiver_id": "17541b2e-710d-430f-a0a3-2fb4a3285946"
  },
  {
    "visit_id": "2ddc37a6-521f-11e9-b63f-06a80bfbb33e",
    "event_type": "check_in",
    "caregiver_id": "5c9090ab-7d5e-4a72-8bf7-197190ad4c98"
  },
  {
    "visit_id": "2ddcad43-521f-11e9-b63f-06a80bfbb33e",
    "event_type": "check_in",
    "caregiver_id": "f8651589-8e43-4787-a061-9a504579c999"
  },
  {
    "visit_id": "5cd0bc70-8b66-f8a8-45e5-02d181abe13e",
    "event_type": "check_in",
    "caregiver_id": "49775586-020b-431d-9e84-614993670130"
  },
  {
    "visit_id": "5cc781f0-8b66-f8a8-43f3-5c958d04af16",
    "event_type": "check_in",
    "caregiver_id": "3cacba0a-6041-11e9-b63f-06a80bfbb33e"
  },
  {
    "visit_id": "5cd60270-8b66-f8a8-43cd-d33f75289c68",
    "event_type": "check_in",
    "caregiver_id": "ca216495-6806-4ecb-974d-e7ece2e9e5b5"
  },
  {
    "visit_id": "5cd60270-8b66-f8a8-4e18-92ddbe4fc996",
    "event_type": "check_in",
    "caregiver_id": "ca216495-6806-4ecb-974d-e7ece2e9e5b5"
  },
  {
    "visit_id": "5cc8d370-8b66-f8a8-49c6-d658a1d59cd3",
    "event_type": "check_in",
    "caregiver_id": "868ffde9-b069-4af5-8835-c4ac4e72e4b5"
  },
  {
    "visit_id": "5cc23bf0-8b66-f8a8-4fe1-2c8af8a4e18e",
    "event_type": "check_in",
    "caregiver_id": "e8314d42-61df-11e9-b63f-06a80bfbb33e"
  },
  {
    "visit_id": "5cc4def0-8b66-f8a8-4275-60ef0c0ee1d5",
    "event_type": "check_in",
    "caregiver_id": "c83e536d-7917-4cd2-aa40-3b22c525596c"
  },
  {
    "visit_id": "5cce1970-8b66-f8a8-4e3a-a21099829cd7",
    "event_type": "check_in",
    "caregiver_id": "220d9432-b5ed-4c81-8709-434899d2cd1b"
  },
  {
    "visit_id": "5cce1970-8b66-f8a8-4d47-212d41e6e36c",
    "event_type": "check_in",
    "caregiver_id": "5ca42f72-9e70-4b8d-b8be-da5ed779b586"
  },
  {
    "visit_id": "5ccf6af0-8b66-f8a8-4773-8d6e8de8e14c",
    "event_type": "check_in",
    "caregiver_id": "5c9090ab-7d5e-4a72-8bf7-197190ad4c98"
  },
  {
    "visit_id": "5cc781f0-8b66-f8a8-4c03-6cf7afbc9c79",
    "event_type": "check_in",
    "caregiver_id": "17541b2e-710d-430f-a0a3-2fb4a3285946"
  },
  {
    "visit_id": "5cd753f0-8b66-f8a8-4591-3f78ca3f9c45",
    "event_type": "check_in",
    "caregiver_id": "5c9090ab-7d5e-4a72-8bf7-197190ad4c98"
  },
  {
    "visit_id": "5cd753f0-8b66-f8a8-43f7-330f62a3e1d6",
    "event_type": "check_in",
    "caregiver_id": "3cacba0a-6041-11e9-b63f-06a80bfbb33e"
  },
  {
    "visit_id": "5cd60270-8b66-f8a8-4e4a-591e21019c57",
    "event_type": "check_in",
    "caregiver_id": "868ffde9-b069-4af5-8835-c4ac4e72e4b5"
  },
  {
    "visit_id": "5cd753f0-8b66-f8a8-4275-60ef0c0ee1d5",
    "event_type": "check_in",
    "caregiver_id": "868ffde9-b069-4af5-8835-c4ac4e72e4b5"
  },
  {
    "visit_id": "5cd0bc70-8b66-f8a8-4878-b1e35339e141",
    "event_type": "check_in",
    "caregiver_id": "49775586-020b-431d-9e84-614993670130"
  },
  {
    "visit_id": "5cbe4770-8b66-f8a8-45e5-02d181abe13e",
    "event_type": "check_in",
    "caregiver_id": "8b7d80d7-f01f-4f4c-921e-d4d6ebf9c13c"
  },
  {
    "visit_id": "5cca24f0-8b66-f8a8-4b4a-e49c2e809c3d",
    "event_type": "check_in",
    "caregiver_id": "5c9090ab-7d5e-4a72-8bf7-197190ad4c98"
  },
  {
    "visit_id": "e8465d34-706e-40d8-a360-253d61bfe2ad",
    "event_type": "check_in",
    "caregiver_id": "868ffde9-b069-4af5-8835-c4ac4e72e4b5"
  },
  {
    "visit_id": "5cccc7f0-8b66-f8a8-44b6-2839a59c9c7d",
    "event_type": "check_in",
    "caregiver_id": "220d9432-b5ed-4c81-8709-434899d2cd1b"
  },
  {
    "visit_id": "5cc8d370-8b66-f8a8-4b29-73cb9aa6af17",
    "event_type": "check_in",
    "caregiver_id": "5c9090ab-7d5e-4a72-8bf7-197190ad4c98"
  },
  {
    "visit_id": "5cca24f0-8b66-f8a8-4866-f9f9da28c9a1",
    "event_type": "check_in",
    "caregiver_id": "f7a00df5-bbc4-4ad7-9918-c07e16e709f6"
  },
  {
    "visit_id": "5ccb7670-8b66-f8a8-4db7-58c55cf8c9a2",
    "event_type": "check_in",
    "caregiver_id": "220d9432-b5ed-4c81-8709-434899d2cd1b"
  },
  {
    "visit_id": "5cc23bf0-8b66-f8a8-406f-e53b5740e11b",
    "event_type": "check_in",
    "caregiver_id": "764c8a29-ee13-4d0b-9fc5-23aec8c27d1b"
  },
  {
    "visit_id": "5cc38d70-8b66-f8a8-4e4a-591e21019c57",
    "event_type": "check_in",
    "caregiver_id": "5c9090ab-7d5e-4a72-8bf7-197190ad4c98"
  },
  {
    "visit_id": "5cc23bf0-8b66-f8a8-4900-34da6bf2e11e",
    "event_type": "check_in",
    "caregiver_id": "ca216495-6806-4ecb-974d-e7ece2e9e5b5"
  },
  {
    "visit_id": "5cca24f0-8b66-f8a8-4866-f9f9da28c9a1",
    "event_type": "check_in",
    "caregiver_id": "ca216495-6806-4ecb-974d-e7ece2e9e5b5"
  },
  {
    "visit_id": "5cd4b0f0-8b66-f8a8-4fe1-2c8af8a4e18e",
    "event_type": "check_in",
    "caregiver_id": "47a19eae-5786-11e9-b63f-06a80bfbb33e"
  },
  {
    "visit_id": "5cc781f0-8b66-f8a8-4143-c7893ef5af13",
    "event_type": "check_in",
    "caregiver_id": "49775586-020b-431d-9e84-614993670130"
  },
  {
    "visit_id": "5cc8d370-8b66-f8a8-4823-e874eddc9c7a",
    "event_type": "check_in",
    "caregiver_id": "868ffde9-b069-4af5-8835-c4ac4e72e4b5"
  },
  {
    "visit_id": "5ccf6af0-8b66-f8a8-4a23-cc2c0dc8e14f",
    "event_type": "check_in",
    "caregiver_id": "63f3eb22-80ed-4b04-b7e0-35fee66bf30a"
  },
  {
    "visit_id": "5ccf6af0-8b66-f8a8-42d4-2cb7f37ae182",
    "event_type": "check_in",
    "caregiver_id": "f8651589-8e43-4787-a061-9a504579c999"
  },
  {
    "visit_id": "5cce1970-8b66-f8a8-4d47-212d41e6e36c",
    "event_type": "check_in",
    "caregiver_id": "f7a00df5-bbc4-4ad7-9918-c07e16e709f6"
  },
  {
    "visit_id": "5cccc7f0-8b66-f8a8-41e6-fe293a369cd6",
    "event_type": "check_in",
    "caregiver_id": "f8651589-8e43-4787-a061-9a504579c999"
  },
  {
    "visit_id": "5cd0bc70-8b66-f8a8-45e5-02d181abe13e",
    "event_type": "check_in",
    "caregiver_id": "f7a00df5-bbc4-4ad7-9918-c07e16e709f6"
  },
  {
    "visit_id": "5cd35f70-8b66-f8a8-476a-33df4fd1c994",
    "event_type": "check_in",
    "caregiver_id": "220d9432-b5ed-4c81-8709-434899d2cd1b"
  },
  {
    "visit_id": "5cd0bc70-8b66-f8a8-45fa-db0b393fe188",
    "event_type": "check_in",
    "caregiver_id": "f8651589-8e43-4787-a061-9a504579c999"
  },
  {
    "visit_id": "5cc781f0-8b66-f8a8-4143-c7893ef5af13",
    "event_type": "check_in",
    "caregiver_id": "ca216495-6806-4ecb-974d-e7ece2e9e5b5"
  },
  {
    "visit_id": "2ddc3653-521f-11e9-b63f-06a80bfbb33e",
    "event_type": "check_in",
    "caregiver_id": "8b7d80d7-f01f-4f4c-921e-d4d6ebf9c13c"
  },
  {
    "visit_id": "5cc8d370-8b66-f8a8-44c5-927e26c9af15",
    "event_type": "check_in",
    "caregiver_id": "17541b2e-710d-430f-a0a3-2fb4a3285946"
  },
  {
    "visit_id": "2ddc3653-521f-11e9-b63f-06a80bfbb33e",
    "event_type": "check_in",
    "caregiver_id": "f7a00df5-bbc4-4ad7-9918-c07e16e709f6"
  },
  {
    "visit_id": "5cce1970-8b66-f8a8-4f57-664f682ae36d",
    "event_type": "check_in",
    "caregiver_id": "220d9432-b5ed-4c81-8709-434899d2cd1b"
  },
  {
    "visit_id": "5cc8d370-8b66-f8a8-4823-e874eddc9c7a",
    "event_type": "check_in",
    "caregiver_id": "f7a00df5-bbc4-4ad7-9918-c07e16e709f6"
  }
]
